{
    "port":3001,
    "db_config":{
        "driver":"mongodb",
        "host":"localhost",
        "port":"27017",
        "username":"root",
        "password":"password",
        "dbName":"chat-app-db",
        "options" : {
            "autoIndex": false, 
            "maxPoolSize": 10, 
            "serverSelectionTimeoutMS": 1000,
            "socketTimeoutMS": 45000, 
            "family": 4 
          }
    },
    "url":{
        "GET_GISTS_LIST":"https://api.github.com/gists",
        "GET_GIST_BY_ID":"https://api.github.com/gists/GIST_ID",
        "DELETE_GIST_BY_ID":"  https://api.github.com/gists/GIST_ID"
    }
}